Text Analysis I at IQMR
…
Washington-1793 :
"Fellow-Citizens of the Senate and House of Representatives: ..."

Washington-1794 :
"Fellow-Citizens of the Senate and House of Representatives: ..."

[ reached max_ndoc ... 235 more documents ]

Code

sou_df <- as_tibble(convert(data_corpus_sotu, to = 'data.frame'))
sou_df

# A tibble: 241 × 8
   doc_id           text     FirstName President Date       delivery type  party
   <chr>            <chr>    <chr>     <chr>     <date>     <fct>    <fct> <fct>
 1 Washington-1790  "Fellow… George    Washingt… 1790-01-08 spoken   SOTU  Inde…
 2 Washington-1790b "Fellow… George    Washingt… 1790-12-08 spoken   SOTU  Inde…
 3 Washington-1791  "Fellow… George    Washingt… 1791-10-25 spoken   SOTU  Inde…
 4 Washington-1792  "Fellow… George    Washingt… 1792-11-06 spoken   SOTU  Inde…
 5 Washington-1793  "Fellow… George    Washingt… 1793-12-03 spoken   SOTU  Inde…
 6 Washington-1794  "Fellow… George    Washingt… 1794-11-19 spoken   SOTU  Inde…
 7 Washington-1795  "Fellow… George    Washingt… 1795-12-08 spoken   SOTU  Inde…
 8 Washington-1796  "Fellow… George    Washingt… 1796-12-07 spoken   SOTU  Inde…
 9 Adams-1797       "Gentle… John      Adams     1797-11-22 spoken   SOTU  Fede…
10 Adams-1798       "Gentle… John      Adams     1798-12-08 spoken   SOTU  Fede…
# ℹ 231 more rows
…
# Ensure the year column exists
if (!"year" %in% colnames(tt_corp_df)) {
  stop("Year column not found in the data frame")
}

# See how often each topic is discussed by year
topic_summary <- tt_corp_df %>% 
  group_by(year, max_topic) %>% 
  summarise(n = n(), .groups = 'drop') %>% 
  arrange(year, max_topic)

print(topic_summary)

# A tibble: 75 × 3
   year  max_topic     n
   <chr>     <int> <int>
 1 2017          1   136
 2 2017          2    91
 3 2017          3   203
 4 2017          4   283
 5 2017          5    67
 6 2017          6    94
 7 2017          7   167
 8 2017          8   225
 9 2017          9   205
10 2017         10   173
# ℹ 65 more rows
…
